17
Model[1]: Jmol 14.28.4  2018-01-24 23:36
Ni      0.00000      0.00000      0.00000
O      -1.96500      0.00000      0.00000
O       0.00000      1.96500      0.00000
O       1.96500      0.00000      0.00000
O       0.00000     -1.96500      0.00000
La     -1.96500     -1.96500     -1.70000
La     -1.96500     -1.96500      1.70000
La      1.96500     -1.96500      1.70000
La      1.96500      1.96500      1.70000
La      1.96500     -1.96500     -1.70000
La     -1.96500      1.96500     -1.70000
La     -1.96500      1.96500      1.70000
La      1.96500      1.96500     -1.70000
Ni     -3.93000      0.00000      0.00000
Ni      0.00000     -3.93000      0.00000
Ni      0.00000      3.93000      0.00000
Ni      3.93000      0.00000      0.00000
